Digital/shiyan5/Dflipflopshujuliu/simulation/qsim/Dflipflopshujuliuwxwjw.msim.vcd
$comment
	File created using the following command:
		vcd file Dflipflopshujuliuwxwjw.msim.vcd -direction
$end
$date
	Mon Nov 09 20:05:38 2020
$end
$version
	ModelSim Version 10.1d
$end
$timescale
	1ps
$end
$scope module Dflipflopshujuliuwxwjw_vlg_vec_tst $end
$var reg 1 ! CLK $end
$var reg 1 " D $end
$var wire 1 # Q $end
$var wire 1 $ sampler $end
$scope module i1 $end
$var wire 1 % gnd $end
$var wire 1 & vcc $end
$var wire 1 ' unknown $end
$var tri1 1 ( devclrn $end
$var tri1 1 ) devpor $end
$var tri1 1 * devoe $end
$var wire 1 + Q~output_o $end
$var wire 1 , CLK~input_o $end
$var wire 1 - D~input_o $end
$var wire 1 . f6~0_combout $end
$var wire 1 / f3~0_combout $end
$var wire 1 0 f1~0_combout $end
$upscope $end
$upscope $end
$enddefinitions $end
#0
$dumpvars
0!
0"
x#
x$
0%
1&
x'
1(
1)
1*
x+
0,
0-
0.
0/
x0
$end
#80000
1"
1-
0$
1.
#100000
1!
1,
1$
1/
00
1+
1#
#160000
0"
0-
0$
0.
#200000
0!
0,
1$
0/
#240000
1"
1-
0$
1.
#300000
1!
1,
1$
1/
#320000
0"
0-
0$
0.
#400000
0!
1"
0,
1-
1$
0/
1.
#480000
0"
0-
0$
0.
#500000
1!
1,
1$
10
0+
0#
#560000
1"
1-
0$
#600000
0!
0,
1$
1.
#640000
0"
0-
0$
0.
#700000
1!
1,
1$
#720000
1"
1-
0$
#800000
0!
0"
0,
0-
1$
#880000
1"
1-
0$
1.
#900000
1!
1,
1$
1/
00
1+
1#
#960000
0"
0-
0$
0.
