Digital/shiyan6/simulation/qsim/wxwjwlsd.msim.vcd
$comment
	File created using the following command:
		vcd file wxwjwlsd.msim.vcd -direction
$end
$date
	Tue Nov 17 12:49:56 2020
$end
$version
	ModelSim Version 10.1d
$end
$timescale
	1ps
$end
$scope module wxwjwlsd_vlg_vec_tst $end
$var reg 1 ! clk $end
$var wire 1 " out [3] $end
$var wire 1 # out [2] $end
$var wire 1 $ out [1] $end
$var wire 1 % out [0] $end
$var wire 1 & sampler $end
$scope module i1 $end
$var wire 1 ' gnd $end
$var wire 1 ( vcc $end
$var wire 1 ) unknown $end
$var tri1 1 * devclrn $end
$var tri1 1 + devpor $end
$var tri1 1 , devoe $end
$var wire 1 - Add0~1 $end
$var wire 1 . Add0~0_combout $end
$var wire 1 / Add0~3 $end
$var wire 1 0 Add0~2_combout $end
$var wire 1 1 Add0~5 $end
$var wire 1 2 Add0~4_combout $end
$var wire 1 3 Add0~7 $end
$var wire 1 4 Add0~6_combout $end
$var wire 1 5 Add0~9 $end
$var wire 1 6 Add0~8_combout $end
$var wire 1 7 Add0~11 $end
$var wire 1 8 Add0~10_combout $end
$var wire 1 9 Add0~13 $end
$var wire 1 : Add0~12_combout $end
$var wire 1 ; Add0~15 $end
$var wire 1 < Add0~14_combout $end
$var wire 1 = Add0~17 $end
$var wire 1 > Add0~16_combout $end
$var wire 1 ? Add0~19 $end
$var wire 1 @ Add0~18_combout $end
$var wire 1 A Add0~21 $end
$var wire 1 B Add0~20_combout $end
$var wire 1 C Add0~23 $end
$var wire 1 D Add0~22_combout $end
$var wire 1 E Add0~25 $end
$var wire 1 F Add0~24_combout $end
$var wire 1 G Add0~27 $end
$var wire 1 H Add0~26_combout $end
$var wire 1 I Add0~29 $end
$var wire 1 J Add0~28_combout $end
$var wire 1 K Add0~31 $end
$var wire 1 L Add0~30_combout $end
$var wire 1 M Add0~33 $end
$var wire 1 N Add0~32_combout $end
$var wire 1 O Add0~35 $end
$var wire 1 P Add0~34_combout $end
$var wire 1 Q Add0~37 $end
$var wire 1 R Add0~36_combout $end
$var wire 1 S Add0~39 $end
$var wire 1 T Add0~38_combout $end
$var wire 1 U Add0~41 $end
$var wire 1 V Add0~40_combout $end
$var wire 1 W Add0~43 $end
$var wire 1 X Add0~42_combout $end
$var wire 1 Y Add0~45 $end
$var wire 1 Z Add0~44_combout $end
$var wire 1 [ Add0~47 $end
$var wire 1 \ Add0~46_combout $end
$var wire 1 ] Add0~49 $end
$var wire 1 ^ Add0~48_combout $end
$var wire 1 _ Add0~51 $end
$var wire 1 ` Add0~50_combout $end
$var wire 1 a Add0~53 $end
$var wire 1 b Add0~52_combout $end
$var wire 1 c Add0~55 $end
$var wire 1 d Add0~54_combout $end
$var wire 1 e Add0~57 $end
$var wire 1 f Add0~56_combout $end
$var wire 1 g Add0~59 $end
$var wire 1 h Add0~58_combout $end
$var wire 1 i Add0~61 $end
$var wire 1 j Add0~60_combout $end
$var wire 1 k Add0~62_combout $end
$var wire 1 l clk_1hz~q $end
$var wire 1 m Equal0~0_combout $end
$var wire 1 n Equal0~1_combout $end
$var wire 1 o Equal0~2_combout $end
$var wire 1 p Equal0~3_combout $end
$var wire 1 q Equal0~4_combout $end
$var wire 1 r Equal0~5_combout $end
$var wire 1 s Equal0~6_combout $end
$var wire 1 t Equal0~7_combout $end
$var wire 1 u Equal0~8_combout $end
$var wire 1 v Equal0~9_combout $end
$var wire 1 w Equal0~10_combout $end
$var wire 1 x clk_1hz~0_combout $end
$var wire 1 y cnt~0_combout $end
$var wire 1 z cnt~1_combout $end
$var wire 1 { cnt~2_combout $end
$var wire 1 | cnt~3_combout $end
$var wire 1 } cnt~4_combout $end
$var wire 1 ~ cnt~5_combout $end
$var wire 1 !! cnt~6_combout $end
$var wire 1 "! cnt~7_combout $end
$var wire 1 #! cnt~8_combout $end
$var wire 1 $! cnt~9_combout $end
$var wire 1 %! cnt~10_combout $end
$var wire 1 &! cnt~11_combout $end
$var wire 1 '! cnt~12_combout $end
$var wire 1 (! clk~input_o $end
$var wire 1 )! ~QUARTUS_CREATED_GND~I_combout $end
$var wire 1 *! clk_1hz~clkctrl_outclk $end
$var wire 1 +! clk~inputclkctrl_outclk $end
$var wire 1 ,! Decoder0~1_combout $end
$var wire 1 -! state[0]~0_combout $end
$var wire 1 .! Decoder0~0_combout $end
$var wire 1 /! state [1] $end
$var wire 1 0! state [0] $end
$var wire 1 1! cnt [31] $end
$var wire 1 2! cnt [30] $end
$var wire 1 3! cnt [29] $end
$var wire 1 4! cnt [28] $end
$var wire 1 5! cnt [27] $end
$var wire 1 6! cnt [26] $end
$var wire 1 7! cnt [25] $end
$var wire 1 8! cnt [24] $end
$var wire 1 9! cnt [23] $end
$var wire 1 :! cnt [22] $end
$var wire 1 ;! cnt [21] $end
$var wire 1 <! cnt [20] $end
$var wire 1 =! cnt [19] $end
$var wire 1 >! cnt [18] $end
$var wire 1 ?! cnt [17] $end
$var wire 1 @! cnt [16] $end
$var wire 1 A! cnt [15] $end
$var wire 1 B! cnt [14] $end
$var wire 1 C! cnt [13] $end
$var wire 1 D! cnt [12] $end
$var wire 1 E! cnt [11] $end
$var wire 1 F! cnt [10] $end
$var wire 1 G! cnt [9] $end
$var wire 1 H! cnt [8] $end
$var wire 1 I! cnt [7] $end
$var wire 1 J! cnt [6] $end
$var wire 1 K! cnt [5] $end
$var wire 1 L! cnt [4] $end
$var wire 1 M! cnt [3] $end
$var wire 1 N! cnt [2] $end
$var wire 1 O! cnt [1] $end
$var wire 1 P! cnt [0] $end
$upscope $end
$upscope $end
$enddefinitions $end
#0
$dumpvars
0!
1%
1$
1#
1"
x&
0'
1(
x)
1*
1+
1,
0-
1.
1/
00
01
02
13
04
05
06
17
08
09
0:
1;
0<
0=
0>
1?
0@
0A
0B
1C
0D
0E
0F
1G
0H
0I
0J
1K
0L
0M
0N
1O
0P
0Q
0R
1S
0T
0U
0V
1W
0X
0Y
0Z
1[
0\
0]
0^
1_
0`
0a
0b
1c
0d
0e
0f
1g
0h
0i
0j
0k
0l
0m
0n
0o
1p
0q
0r
0s
0t
0u
1v
0w
0x
0y
0z
0{
0|
0}
1~
0!!
0"!
0#!
0$!
0%!
0&!
0'!
0(!
0)!
0*!
0+!
0,!
1-!
0.!
00!
0/!
0P!
0O!
0N!
0M!
0L!
0K!
0J!
0I!
0H!
0G!
0F!
0E!
0D!
0C!
0B!
0A!
0@!
0?!
0>!
0=!
0<!
0;!
0:!
09!
08!
07!
06!
05!
04!
03!
02!
01!
$end
#50000
1!
1(!
1+!
0&
1P!
0p
1-
0.
10
0~
#100000
0!
0(!
0+!
1&
#150000
1!
1(!
1+!
0&
0P!
1O!
0-
1.
0/
00
1/
10
1~
12
02
#200000
0!
0(!
0+!
1&
#250000
1!
1(!
1+!
0&
1P!
1-
0.
0/
00
0~
12
#300000
0!
0(!
0+!
1&
#350000
1!
1(!
1+!
0&
0P!
0O!
1N!
0-
1.
1/
10
11
02
00
1~
01
12
14
04
#400000
0!
0(!
0+!
1&
#450000
1!
1(!
1+!
0&
1P!
1-
0.
10
0~
#500000
0!
0(!
0+!
1&
#550000
1!
1(!
1+!
0&
0P!
1O!
0-
1.
0/
00
1/
10
1~
11
02
01
12
14
04
#600000
0!
0(!
0+!
1&
#650000
1!
1(!
1+!
0&
1P!
1-
0.
0/
00
0~
11
02
14
#700000
0!
0(!
0+!
1&
#750000
1!
1(!
1+!
0&
0P!
0O!
0N!
1M!
0-
1.
1/
10
01
12
03
04
00
1~
02
13
14
16
06
#800000
0!
0(!
0+!
1&
#850000
1!
1(!
1+!
0&
1P!
1-
0.
10
0~
#900000
0!
0(!
0+!
1&
#950000
1!
1(!
1+!
0&
0P!
1O!
0-
1.
0/
00
1/
10
1~
12
02
