Digital/未命名文件夹/190741 24实验七/shiyan7/jishuqi/simulation/qsim/wxwjwjsq.msim.vcd
$comment
	File created using the following command:
		vcd file wxwjwjsq.msim.vcd -direction
$end
$date
	Mon Nov 23 18:02:48 2020
$end
$version
	ModelSim Version 10.1d
$end
$timescale
	1ps
$end
$scope module wxwjwjsq_vlg_vec_tst $end
$var reg 1 ! clk $end
$var reg 1 " cr $end
$var reg 2 # epet [1:0] $end
$var reg 4 $ in [3:0] $end
$var reg 1 % ld $end
$var wire 1 & a $end
$var wire 1 ' b $end
$var wire 1 ( c $end
$var wire 1 ) co $end
$var wire 1 * d $end
$var wire 1 + e $end
$var wire 1 , f $end
$var wire 1 - g $end
$var wire 1 . rco $end
$var wire 1 / sel $end
$var wire 1 0 sampler $end
$scope module i1 $end
$var wire 1 1 gnd $end
$var wire 1 2 vcc $end
$var wire 1 3 unknown $end
$var tri1 1 4 devclrn $end
$var tri1 1 5 devpor $end
$var tri1 1 6 devoe $end
$var wire 1 7 clk~input_o $end
$var wire 1 8 epet[1]~input_o $end
$var wire 1 9 rco~output_o $end
$var wire 1 : a~output_o $end
$var wire 1 ; b~output_o $end
$var wire 1 < c~output_o $end
$var wire 1 = d~output_o $end
$var wire 1 > e~output_o $end
$var wire 1 ? f~output_o $end
$var wire 1 @ g~output_o $end
$var wire 1 A sel~output_o $end
$var wire 1 B co~output_o $end
$var wire 1 C in[3]~input_o $end
$var wire 1 D ld~input_o $end
$var wire 1 E in[0]~input_o $end
$var wire 1 F comb_3|q~4_combout $end
$var wire 1 G epet[0]~input_o $end
$var wire 1 H cr~input_o $end
$var wire 1 I comb_3|q[0]~2_combout $end
$var wire 1 J in[1]~input_o $end
$var wire 1 K comb_3|q~5_combout $end
$var wire 1 L comb_3|q~6_combout $end
$var wire 1 M comb_3|q~0_combout $end
$var wire 1 N comb_3|q~1_combout $end
$var wire 1 O comb_3|rco~0_combout $end
$var wire 1 P comb_3|rco~combout $end
$var wire 1 Q in[2]~input_o $end
$var wire 1 R comb_3|Add0~0_combout $end
$var wire 1 S comb_3|q~3_combout $end
$var wire 1 T comb_4|a~0_combout $end
$var wire 1 U comb_4|b~0_combout $end
$var wire 1 V comb_4|Decoder0~0_combout $end
$var wire 1 W comb_4|WideOr4~0_combout $end
$var wire 1 X comb_4|WideOr6~0_combout $end
$var wire 1 Y comb_4|WideOr8~0_combout $end
$var wire 1 Z comb_4|WideOr10~0_combout $end
$var wire 1 [ comb_4|LessThan0~0_combout $end
$var wire 1 \ comb_3|q [3] $end
$var wire 1 ] comb_3|q [2] $end
$var wire 1 ^ comb_3|q [1] $end
$var wire 1 _ comb_3|q [0] $end
$upscope $end
$upscope $end
$enddefinitions $end
#0
$dumpvars
0!
1"
b11 #
b0 $
1%
1&
1'
1(
0)
1*
1+
1,
0-
0.
0/
x0
01
12
x3
14
15
16
07
18
09
1:
1;
1<
1=
1>
1?
0@
0A
0B
0C
1D
0E
1F
1G
1H
1I
0J
0K
0L
0M
0N
0O
0P
0Q
0R
0S
0T
1U
0V
0W
0X
0Y
0Z
0[
0_
0^
0]
0\
$end
#10000
1!
17
00
1_
1Y
1X
1W
1T
1K
0F
1L
0?
0>
0=
0:
0,
0+
0*
0&
#20000
0!
07
10
#30000
1!
17
00
1^
0_
0X
0W
1V
0T
1F
1Z
1>
1=
0<
1:
1@
1+
1*
0(
1&
1-
#40000
0!
07
10
#50000
1!
17
00
1_
1X
0V
1R
0K
0F
1S
0L
0>
1<
0+
1(
#60000
0!
07
10
#70000
1!
17
00
1]
0^
0_
0Y
1W
1T
1F
1?
0=
0:
1,
0*
0&
#80000
0!
07
10
#90000
1!
17
00
1_
0W
0T
1K
0F
0U
1L
1=
1:
0;
1*
1&
0'
#100000
0!
07
10
#110000
1!
17
00
1^
0_
0X
1F
1>
1+
#120000
0!
07
10
#130000
1!
17
00
1_
1Y
1X
1W
0R
1O
1M
0K
0F
0Z
1U
0S
1N
0L
0?
0>
0=
0@
1;
0,
0+
0*
0-
1'
#140000
0!
07
10
#150000
1!
17
00
0]
1\
0^
0_
0Y
0X
0W
0O
1F
1Z
1P
1?
1>
1=
1@
19
1,
1+
1*
1-
1.
0P
09
0.
#160000
0!
07
10
#170000
1!
17
00
1_
1X
1K
0F
1L
0>
0+
#180000
0!
07
10
#190000
1!
17
00
1^
0_
0X
1F
1[
0Z
1>
1B
0@
1+
1)
0-
#200000
0!
07
10
#210000
1!
17
00
1_
1Y
1X
1W
1T
1R
0K
0F
1S
0L
0?
0>
0=
0:
0,
0+
0*
0&
#220000
0!
07
10
#230000
1!
17
00
1]
0^
0_
0X
0W
1V
0T
1F
1Z
1>
1=
0<
1:
1@
1+
1*
0(
1&
1-
#240000
0!
07
10
#250000
1!
17
00
1_
1X
0V
1K
0F
1L
0>
1<
0+
1(
#260000
0!
07
10
#270000
1!
17
00
1^
0_
0Y
1W
1T
1F
1?
0=
0:
1,
0*
0&
#280000
0!
07
10
#290000
1!
17
00
1_
0W
0T
0R
1O
0M
0K
0F
0U
0S
0N
0L
1=
1:
0;
1*
1&
0'
1P
19
1.
#300000
0!
07
10
#310000
1!
17
00
0]
0\
0^
0_
0X
0O
1F
0[
0Z
1U
0P
1>
0B
0@
1;
09
1+
0)
0-
1'
0.
#320000
0!
07
10
#330000
1!
17
00
1_
1Y
1X
1W
1T
1K
0F
1L
0?
0>
0=
0:
0,
0+
0*
0&
#340000
0!
07
10
#350000
1!
17
00
1^
0_
0X
0W
1V
0T
1F
1Z
1>
1=
0<
1:
1@
1+
1*
0(
1&
1-
#360000
0!
07
10
#370000
1!
17
00
1_
1X
0V
1R
0K
0F
1S
0L
0>
1<
0+
1(
#380000
0!
07
10
#390000
1!
17
00
1]
0^
0_
0Y
1W
1T
1F
1?
0=
0:
1,
0*
0&
#400000
0!
07
10
#410000
1!
17
00
1_
0W
0T
1K
0F
0U
1L
1=
1:
0;
1*
1&
0'
#420000
0!
07
10
#430000
1!
17
00
1^
0_
0X
1F
1>
1+
#440000
0!
07
10
#450000
1!
17
00
1_
1Y
1X
1W
0R
1O
1M
0K
0F
0Z
1U
0S
1N
0L
0?
0>
0=
0@
1;
0,
0+
0*
0-
1'
#460000
0!
07
10
#470000
1!
17
00
0]
1\
0^
0_
0Y
0X
0W
0O
1F
1Z
1P
1?
1>
1=
1@
19
1,
1+
1*
1-
1.
0P
09
0.
#480000
0!
07
10
#490000
1!
17
00
1_
1X
1K
0F
1L
0>
0+
#500000
0!
07
10
#510000
1!
17
00
1^
0_
0X
1F
1[
0Z
1>
1B
0@
1+
1)
0-
#520000
0!
07
10
#530000
1!
17
00
1_
1Y
1X
1W
1T
1R
0K
0F
1S
0L
0?
0>
0=
0:
0,
0+
0*
0&
#540000
0!
07
10
#550000
1!
17
00
1]
0^
0_
0X
0W
1V
0T
1F
1Z
1>
1=
0<
1:
1@
1+
1*
0(
1&
1-
#560000
0!
07
10
#570000
1!
17
00
1_
1X
0V
1K
0F
1L
0>
1<
0+
1(
#580000
0!
07
10
#590000
1!
17
00
1^
0_
0Y
1W
1T
1F
1?
0=
0:
1,
0*
0&
#600000
0!
07
10
#610000
1!
17
00
1_
0W
0T
0R
1O
0M
0K
0F
0U
0S
0N
0L
1=
1:
0;
1*
1&
0'
1P
19
1.
#620000
0!
07
10
#630000
1!
17
00
0]
0\
0^
0_
0X
0O
1F
0[
0Z
1U
0P
1>
0B
0@
1;
09
1+
0)
0-
1'
0.
#640000
0!
07
10
#650000
1!
17
00
1_
1Y
1X
1W
1T
1K
0F
1L
0?
0>
0=
0:
0,
0+
0*
0&
#660000
0!
07
10
#670000
1!
17
00
1^
0_
0X
0W
1V
0T
1F
1Z
1>
1=
0<
1:
1@
1+
1*
0(
1&
1-
#680000
0!
07
10
#690000
1!
17
00
1_
1X
0V
1R
0K
0F
1S
0L
0>
1<
0+
1(
#700000
0!
07
10
#710000
1!
17
00
1]
0^
0_
0Y
1W
1T
1F
1?
0=
0:
1,
0*
0&
#720000
0!
07
10
#730000
1!
17
00
1_
0W
0T
1K
0F
0U
1L
1=
1:
0;
1*
1&
0'
#740000
0!
07
10
#750000
1!
17
00
1^
0_
0X
1F
1>
1+
#760000
0!
07
10
#770000
1!
17
00
1_
1Y
1X
1W
0R
1O
1M
0K
0F
0Z
1U
0S
1N
0L
0?
0>
0=
0@
1;
0,
0+
0*
0-
1'
#780000
0!
07
10
#790000
1!
17
00
0]
1\
0^
0_
0Y
0X
0W
0O
1F
1Z
1P
1?
1>
1=
1@
19
1,
1+
1*
1-
1.
0P
09
0.
#800000
0!
07
10
#810000
1!
17
00
1_
1X
1K
0F
1L
0>
0+
#820000
0!
07
10
#830000
1!
17
00
1^
0_
0X
1F
1[
0Z
1>
1B
0@
1+
1)
0-
#840000
0!
07
10
#850000
1!
17
00
1_
1Y
1X
1W
1T
1R
0K
0F
1S
0L
0?
0>
0=
0:
0,
0+
0*
0&
#860000
0!
07
10
#870000
1!
17
00
1]
0^
0_
0X
0W
1V
0T
1F
1Z
1>
1=
0<
1:
1@
1+
1*
0(
1&
1-
#880000
0!
07
10
#890000
1!
17
00
1_
1X
0V
1K
0F
1L
0>
1<
0+
1(
#900000
0!
07
10
#910000
1!
17
00
1^
0_
0Y
1W
1T
1F
1?
0=
0:
1,
0*
0&
#920000
0!
07
10
#930000
1!
17
00
1_
0W
0T
0R
1O
0M
0K
0F
0U
0S
0N
0L
1=
1:
0;
1*
1&
0'
1P
19
1.
#940000
0!
07
10
#950000
1!
17
00
0]
0\
0^
0_
0X
0O
1F
0[
0Z
1U
0P
1>
0B
0@
1;
09
1+
0)
0-
1'
0.
#960000
0!
07
10
#970000
1!
17
00
1_
1Y
1X
1W
1T
1K
0F
1L
0?
0>
0=
0:
0,
0+
0*
0&
#980000
0!
07
10
#990000
1!
17
00
1^
0_
0X
0W
1V
0T
1F
1Z
1>
1=
0<
1:
1@
1+
1*
0(
1&
1-
