Digital/190741+24实验四/shiyan4/simulation/qsim/adderwxwjw.msim.vcd
$comment
	File created using the following command:
		vcd file adderwxwjw.msim.vcd -direction
$end
$date
	Tue Nov 03 13:45:26 2020
$end
$version
	ModelSim Version 10.1d
$end
$timescale
	1ps
$end
$scope module Block1_vlg_vec_tst $end
$var reg 4 ! in1 [3:0] $end
$var reg 4 " in2 [3:0] $end
$var wire 1 # a $end
$var wire 1 $ b $end
$var wire 1 % c $end
$var wire 1 & d $end
$var wire 1 ' e $end
$var wire 1 ( f $end
$var wire 1 ) g $end
$var wire 1 * led $end
$var wire 1 + yinji $end
$var wire 1 , sampler $end
$scope module i1 $end
$var wire 1 - gnd $end
$var wire 1 . vcc $end
$var wire 1 / unknown $end
$var tri1 1 0 devclrn $end
$var tri1 1 1 devpor $end
$var tri1 1 2 devoe $end
$var wire 1 3 inst1|Add0~6_combout $end
$var wire 1 4 inst1|out[1]~1_combout $end
$var wire 1 5 in2[2]~input_o $end
$var wire 1 6 in2[0]~input_o $end
$var wire 1 7 a~output_o $end
$var wire 1 8 b~output_o $end
$var wire 1 9 c~output_o $end
$var wire 1 : d~output_o $end
$var wire 1 ; e~output_o $end
$var wire 1 < f~output_o $end
$var wire 1 = g~output_o $end
$var wire 1 > yinji~output_o $end
$var wire 1 ? led~output_o $end
$var wire 1 @ in2[3]~input_o $end
$var wire 1 A in2[1]~input_o $end
$var wire 1 B in1[2]~input_o $end
$var wire 1 C in1[3]~input_o $end
$var wire 1 D in1[1]~input_o $end
$var wire 1 E inst1|always0~0_combout $end
$var wire 1 F inst1|always0~1_combout $end
$var wire 1 G in1[0]~input_o $end
$var wire 1 H inst1|Add0~1 $end
$var wire 1 I inst1|Add0~3 $end
$var wire 1 J inst1|Add0~4_combout $end
$var wire 1 K inst1|Add0~2_combout $end
$var wire 1 L inst1|out[2]~2_combout $end
$var wire 1 M inst1|out[3]~3_combout $end
$var wire 1 N inst1|Add0~0_combout $end
$var wire 1 O inst1|out[0]~0_combout $end
$var wire 1 P inst|a~0_combout $end
$var wire 1 Q inst|a~1_combout $end
$var wire 1 R inst|b~0_combout $end
$var wire 1 S inst|b~1_combout $end
$var wire 1 T inst|Decoder0~0_combout $end
$var wire 1 U inst|c~0_combout $end
$var wire 1 V inst|WideOr4~0_combout $end
$var wire 1 W inst|WideOr4~1_combout $end
$var wire 1 X inst|WideOr6~0_combout $end
$var wire 1 Y inst|WideOr6~1_combout $end
$var wire 1 Z inst|WideOr8~0_combout $end
$var wire 1 [ inst|WideOr8~1_combout $end
$var wire 1 \ inst|WideOr10~0_combout $end
$var wire 1 ] inst|WideOr10~1_combout $end
$var wire 1 ^ inst1|Add0~5 $end
$var wire 1 _ inst1|Add0~7 $end
$var wire 1 ` inst1|Add0~8_combout $end
$var wire 1 a inst1|co~0_combout $end
$var wire 1 b inst1|co~combout $end
$upscope $end
$upscope $end
$enddefinitions $end
#0
$dumpvars
b0 !
b0 "
1#
1$
1%
1&
1'
1(
0)
0*
0+
x,
0-
1.
x/
10
11
12
03
04
05
06
17
18
19
1:
1;
1<
0=
0>
0?
0@
0A
0B
0C
0D
0E
0F
0G
0H
1I
0J
0K
0L
0M
0N
0O
0P
0Q
0R
0S
0T
0U
0V
0W
0X
0Y
0Z
0[
0\
0]
0^
1_
0`
0a
0b
$end
#10000
b1 "
16
0,
1N
1O
1Z
1X
1V
1P
1[
1Y
1W
1Q
0<
0;
0:
07
0(
0'
0&
0#
#20000
b11 "
b10 "
06
1A
1,
0N
1K
0O
14
1\
0X
0V
1T
0P
0Y
0W
1U
0Q
1]
1;
1:
09
17
1=
1'
1&
0%
1#
1)
#30000
b1 !
b11 "
16
1G
0,
1H
0I
0K
1J
04
1L
0\
0Z
0T
1\
1X
1V
1P
0[
0U
0]
1Y
1W
1Q
1<
19
0=
1(
1%
0)
1]
0;
0:
07
1=
0'
0&
0#
1)
#40000
b111 "
b101 "
b100 "
06
0A
15
1,
0H
1N
1I
1K
1^
0J
0K
1O
0^
1J
0L
14
13
1a
1Z
0V
0P
03
1[
0W
0Q
0a
1L
04
1b
0Z
1R
0<
1:
17
1?
0(
1&
1#
1*
0b
0[
1S
0?
0*
1<
08
1(
0$
#50000
b101 "
16
0,
1H
0N
1K
0O
14
1V
0R
1P
0X
0V
1R
0P
1W
0S
1Q
0Y
0W
1S
0Q
0:
18
07
0&
1$
0#
1;
1:
08
17
1'
1&
0$
1#
#60000
b11 !
b10 !
b111 "
b110 "
06
1A
0G
1D
1,
0H
0I
0K
1^
0J
0L
04
13
0\
0R
1M
0S
1\
0]
18
0=
1$
0)
1]
1=
1)
#70000
b111 "
16
0,
1N
1O
1X
1Y
0;
0'
#80000
b1111 "
b1011 "
b1001 "
b1000 "
06
0A
05
1@
1,
0N
1I
1K
0^
1J
0_
03
0O
0J
0M
1L
14
1_
13
1`
0X
1R
0L
04
0`
0Y
1S
0\
0R
1a
0S
1;
08
1'
0$
0]
1b
18
0=
1?
1$
0)
1*
#90000
b11 !
b1001 "
16
1G
0,
1H
0I
0K
1J
0a
1M
1a
0M
14
1\
0b
1Z
1T
0?
0*
1b
1]
1[
1U
1?
1=
1*
1)
0<
09
0(
0%
#100000
b1011 "
b1010 "
06
1A
1,
0H
1N
1K
1F
0K
04
1Y
1W
0U
1S
1Q
0]
0\
0Z
0T
0;
0:
19
08
07
0=
0'
0&
1%
0$
0#
0)
1U
09
0%
#110000
b1011 "
16
0,
1H
0N
1K
#120000
b111 !
b101 !
b1111 "
b100 !
b1101 "
b1100 "
06
0A
15
0G
0D
1B
1,
0H
1I
1^
0K
0J
0_
03
0a
1`
#130000
b1101 "
16
0,
1N
#140000
b1111 "
b1110 "
06
1A
1,
0N
1K
#150000
b101 !
b1111 "
16
1G
0,
1H
0I
0K
1J
#160000
b111 "
b11 "
b1 "
b0 "
06
0A
05
0@
1,
0H
1N
1I
1K
0F
0J
1_
13
0K
1O
0^
1J
0[
0Y
0W
0U
0S
0Q
0`
0b
1a
14
1Z
1X
1V
1P
03
1<
1;
1:
19
18
17
0?
1(
1'
1&
1%
1$
1#
0*
1\
0V
0P
1[
1Y
1W
1Q
0a
1L
04
1b
0W
0Q
0Z
1R
0<
0;
0:
07
1?
0(
0'
0&
0#
1*
1]
0b
0[
1S
1:
17
1=
0?
1&
1#
1)
0*
1<
08
1(
0$
#170000
b1 "
16
0,
1H
0N
1K
0O
14
1V
0R
1P
0X
0V
1R
0P
1W
0S
1Q
0Y
0W
1S
0Q
0:
18
07
0&
1$
0#
1;
1:
08
17
1'
1&
0$
1#
#180000
b111 !
b110 !
b11 "
b10 "
06
1A
0G
1D
1,
0H
0I
0K
1^
0J
0L
04
13
0\
0R
1M
0S
1\
0]
18
0=
1$
0)
1]
1=
1)
#190000
b11 "
16
0,
1N
1O
1X
1Y
0;
0'
#200000
b111 "
b101 "
b100 "
06
0A
15
1,
0N
1I
1K
1J
0O
0J
1a
0M
1L
1V
1P
0L
1b
1W
1Q
0\
0X
0V
0P
1?
1*
0Y
0W
0Q
0:
07
0&
0#
0]
1;
1:
17
0=
1'
1&
1#
0)
#210000
b111 !
b101 "
16
1G
0,
1H
0I
0K
1J
0a
1M
1a
0M
14
1\
0b
1Z
1T
0?
0*
1b
1]
1[
1U
1?
1=
1*
1)
0<
09
0(
0%
#220000
b111 "
b110 "
06
1A
1,
0H
1N
1K
0K
1O
1L
04
0L
14
0Z
1X
0T
1R
1Z
0R
0[
1Y
0U
1S
1[
0S
1<
0;
19
08
1(
0'
1%
0$
0<
18
0(
1$
#230000
b111 "
16
0,
1H
0N
1K
0O
1L
04
0X
1T
0Z
1X
1V
0T
1P
0Y
1U
0[
1Y
1W
0U
1Q
1;
09
1'
0%
1<
0;
0:
19
07
1(
0'
0&
1%
0#
#240000
b1111 !
b1011 !
b1111 "
b1001 !
b1011 "
b1000 !
b1001 "
b1000 "
06
0A
05
1@
0G
0D
0B
1C
1,
0H
1I
0^
0_
0K
0J
03
1`
0a
0L
0\
0X
0V
0P
0b
0Y
0W
0Q
0?
0*
0]
1;
1:
17
0=
1'
1&
1#
0)
#250000
b1001 "
16
0,
1N
1O
1Z
1X
1V
1P
1[
1Y
1W
1Q
0<
0;
0:
07
0(
0'
0&
0#
#260000
b1011 "
b1010 "
06
1A
1,
0N
1K
1F
0O
1U
1S
0Z
0X
0V
0P
09
08
0%
0$
#270000
b1001 !
b1011 "
16
1G
0,
1H
0I
0K
1J
#280000
b1111 "
b1101 "
b1100 "
06
0A
15
1,
0H
1N
1I
1K
1^
0J
0K
0^
1J
13
03
#290000
b1101 "
16
0,
1H
0N
1K
#300000
b1011 !
b1010 !
b1111 "
b1110 "
06
1A
0G
1D
1,
0H
0I
1E
0K
1^
0J
13
#310000
b1111 "
16
0,
1N
#320000
b111 "
b11 "
b1 "
b0 "
06
0A
05
0@
1,
0N
1I
1K
0^
1J
03
0J
1_
13
0`
1a
#330000
b1011 !
b1 "
16
1G
0,
1H
0I
0K
1J
0a
1a
#340000
b11 "
b10 "
06
1A
1,
0H
1N
1K
0K
#350000
b11 "
16
0,
1H
0N
1K
#360000
b1111 !
b1101 !
b111 "
b1100 !
b101 "
b100 "
06
0A
15
0G
0D
1B
1,
0H
1I
1^
0K
0J
0_
03
0a
1`
#370000
b101 "
16
0,
1N
#380000
b111 "
b110 "
06
1A
1,
0N
1K
#390000
b1101 !
b111 "
16
1G
0,
1H
0I
0K
1J
#400000
b1111 "
b1011 "
b1001 "
b1000 "
06
0A
05
1@
1,
0H
1N
1I
1K
0J
13
0K
0^
1J
03
#410000
b1001 "
16
0,
1H
0N
1K
#420000
b1111 !
b1110 !
b1011 "
b1010 "
06
1A
0G
1D
1,
0H
0I
0K
1^
0J
13
#430000
b1011 "
16
0,
1N
#440000
b1111 "
b1101 "
b1100 "
06
0A
15
1,
0N
1I
1K
1J
0J
#450000
b1111 !
b1101 "
16
1G
0,
1H
0I
0K
1J
#460000
b1111 "
b1110 "
06
1A
1,
0H
1N
1K
0K
#470000
b1111 "
16
0,
1H
0N
1K
#480000
b111 !
b11 !
b111 "
b1 !
b11 "
b0 !
b1 "
b0 "
06
0A
05
0@
0G
0D
0B
0C
1,
0H
1I
0^
1_
0E
0K
0J
03
0`
0F
0[
0Y
0W
0U
0S
0Q
1<
1;
1:
19
18
17
1(
1'
1&
1%
1$
1#
#490000
b1 "
16
0,
1N
1O
1Z
1X
1V
1P
1[
1Y
1W
1Q
0<
0;
0:
07
0(
0'
0&
0#
#500000
b11 "
b10 "
06
1A
1,
0N
1K
0O
14
1\
0X
0V
1T
0P
0Y
0W
1U
0Q
1]
1;
1:
09
17
1=
1'
1&
0%
1#
1)
#510000
b1 !
b11 "
16
1G
0,
1H
0I
0K
1J
04
1L
0\
0Z
0T
1\
1X
1V
1P
0[
0U
0]
1Y
1W
1Q
1<
19
0=
1(
1%
0)
1]
0;
0:
07
1=
0'
0&
0#
1)
#520000
b111 "
b101 "
b100 "
06
0A
15
1,
0H
1N
1I
1K
1^
0J
0K
1O
0^
1J
0L
14
13
1a
1Z
0V
0P
03
1[
0W
0Q
0a
1L
04
1b
0Z
1R
0<
1:
17
1?
0(
1&
1#
1*
0b
0[
1S
0?
0*
1<
08
1(
0$
#530000
b101 "
16
0,
1H
0N
1K
0O
14
1V
0R
1P
0X
0V
1R
0P
1W
0S
1Q
0Y
0W
1S
0Q
0:
18
07
0&
1$
0#
1;
1:
08
17
1'
1&
0$
1#
#540000
b11 !
b10 !
b111 "
b110 "
06
1A
0G
1D
1,
0H
0I
0K
1^
0J
0L
04
13
0\
0R
1M
0S
1\
0]
18
0=
1$
0)
1]
1=
1)
#550000
b111 "
16
0,
1N
1O
1X
1Y
0;
0'
#560000
b1111 "
b1011 "
b1001 "
b1000 "
06
0A
05
1@
1,
0N
1I
1K
0^
1J
0_
03
0O
0J
0M
1L
14
1_
13
1`
0X
1R
0L
04
0`
0Y
1S
0\
0R
1a
0S
1;
08
1'
0$
0]
1b
18
0=
1?
1$
0)
1*
#570000
b11 !
b1001 "
16
1G
0,
1H
0I
0K
1J
0a
1M
1a
0M
14
1\
0b
1Z
1T
0?
0*
1b
1]
1[
1U
1?
1=
1*
1)
0<
09
0(
0%
#580000
b1011 "
b1010 "
06
1A
1,
0H
1N
1K
1F
0K
04
1Y
1W
0U
1S
1Q
0]
0\
0Z
0T
0;
0:
19
08
07
0=
0'
0&
1%
0$
0#
0)
1U
09
0%
#590000
b1011 "
16
0,
1H
0N
1K
#600000
b111 !
b101 !
b1111 "
b100 !
b1101 "
b1100 "
06
0A
15
0G
0D
1B
1,
0H
1I
1^
0K
0J
0_
03
0a
1`
#610000
b1101 "
16
0,
1N
#620000
b1111 "
b1110 "
06
1A
1,
0N
1K
#630000
b101 !
b1111 "
16
1G
0,
1H
0I
0K
1J
#640000
b111 "
b11 "
b1 "
b0 "
06
0A
05
0@
1,
0H
1N
1I
1K
0F
0J
1_
13
0K
1O
0^
1J
0[
0Y
0W
0U
0S
0Q
0`
0b
1a
14
1Z
1X
1V
1P
03
1<
1;
1:
19
18
17
0?
1(
1'
1&
1%
1$
1#
0*
1\
0V
0P
1[
1Y
1W
1Q
0a
1L
04
1b
0W
0Q
0Z
1R
0<
0;
0:
07
1?
0(
0'
0&
0#
1*
1]
0b
0[
1S
1:
17
1=
0?
1&
1#
1)
0*
1<
08
1(
0$
#650000
b1 "
16
0,
1H
0N
1K
0O
14
1V
0R
1P
0X
0V
1R
0P
1W
0S
1Q
0Y
0W
1S
0Q
0:
18
07
0&
1$
0#
1;
1:
08
17
1'
1&
0$
1#
#660000
b111 !
b110 !
b11 "
b10 "
06
1A
0G
1D
1,
0H
0I
0K
1^
0J
0L
04
13
0\
0R
1M
0S
1\
0]
18
0=
1$
0)
1]
1=
1)
#670000
b11 "
16
0,
1N
1O
1X
1Y
0;
0'
#680000
b111 "
b101 "
b100 "
06
0A
15
1,
0N
1I
1K
1J
0O
0J
1a
0M
1L
1V
1P
0L
1b
1W
1Q
0\
0X
0V
0P
1?
1*
0Y
0W
0Q
0:
07
0&
0#
0]
1;
1:
17
0=
1'
1&
1#
0)
#690000
b111 !
b101 "
16
1G
0,
1H
0I
0K
1J
0a
1M
1a
0M
14
1\
0b
1Z
1T
0?
0*
1b
1]
1[
1U
1?
1=
1*
1)
0<
09
0(
0%
#700000
b111 "
b110 "
06
1A
1,
0H
1N
1K
0K
1O
1L
04
0L
14
0Z
1X
0T
1R
1Z
0R
0[
1Y
0U
1S
1[
0S
1<
0;
19
08
1(
0'
1%
0$
0<
18
0(
1$
#710000
b111 "
16
0,
1H
0N
1K
0O
1L
04
0X
1T
0Z
1X
1V
0T
1P
0Y
1U
0[
1Y
1W
0U
1Q
1;
09
1'
0%
1<
0;
0:
19
07
1(
0'
0&
1%
0#
#720000
b1111 !
b1011 !
b1111 "
b1001 !
b1011 "
b1000 !
b1001 "
b1000 "
06
0A
05
1@
0G
0D
0B
1C
1,
0H
1I
0^
0_
0K
0J
03
1`
0a
0L
0\
0X
0V
0P
0b
0Y
0W
0Q
0?
0*
0]
1;
1:
17
0=
1'
1&
1#
0)
#730000
b1001 "
16
0,
1N
1O
1Z
1X
1V
1P
1[
1Y
1W
1Q
0<
0;
0:
07
0(
0'
0&
0#
#740000
b1011 "
b1010 "
06
1A
1,
0N
1K
1F
0O
1U
1S
0Z
0X
0V
0P
09
08
0%
0$
#750000
b1001 !
b1011 "
16
1G
0,
1H
0I
0K
1J
#760000
b1111 "
b1101 "
b1100 "
06
0A
15
1,
0H
1N
1I
1K
1^
0J
0K
0^
1J
13
03
#770000
b1101 "
16
0,
1H
0N
1K
#780000
b1011 !
b1010 !
b1111 "
b1110 "
06
1A
0G
1D
1,
0H
0I
1E
0K
1^
0J
13
#790000
b1111 "
16
0,
1N
#800000
b111 "
b11 "
b1 "
b0 "
06
0A
05
0@
1,
0N
1I
1K
0^
1J
03
0J
1_
13
0`
1a
#810000
b1011 !
b1 "
16
1G
0,
1H
0I
0K
1J
0a
1a
#820000
b11 "
b10 "
06
1A
1,
0H
1N
1K
0K
#830000
b11 "
16
0,
1H
0N
1K
#840000
b1111 !
b1101 !
b111 "
b1100 !
b101 "
b100 "
06
0A
15
0G
0D
1B
1,
0H
1I
1^
0K
0J
0_
03
0a
1`
#850000
b101 "
16
0,
1N
#860000
b111 "
b110 "
06
1A
1,
0N
1K
#870000
b1101 !
b111 "
16
1G
0,
1H
0I
0K
1J
#880000
b1111 "
b1011 "
b1001 "
b1000 "
06
0A
05
1@
1,
0H
1N
1I
1K
0J
13
0K
0^
1J
03
#890000
b1001 "
16
0,
1H
0N
1K
#900000
b1111 !
b1110 !
b1011 "
b1010 "
06
1A
0G
1D
1,
0H
0I
0K
1^
0J
13
#910000
b1011 "
16
0,
1N
#920000
b1111 "
b1101 "
b1100 "
06
0A
15
1,
0N
1I
1K
1J
0J
#930000
b1111 !
b1101 "
16
1G
0,
1H
0I
0K
1J
#940000
b1111 "
b1110 "
06
1A
1,
0H
1N
1K
0K
#950000
b1111 "
16
0,
1H
0N
1K
#960000
b111 !
b11 !
b111 "
b1 !
b11 "
b0 !
b1 "
b0 "
06
0A
05
0@
0G
0D
0B
0C
1,
0H
1I
0^
1_
0E
0K
0J
03
0`
0F
0[
0Y
0W
0U
0S
0Q
1<
1;
1:
19
18
17
1(
1'
1&
1%
1$
1#
#970000
b1 "
16
0,
1N
1O
1Z
1X
1V
1P
1[
1Y
1W
1Q
0<
0;
0:
07
0(
0'
0&
0#
#980000
b11 "
b10 "
06
1A
1,
0N
1K
0O
14
1\
0X
0V
1T
0P
0Y
0W
1U
0Q
1]
1;
1:
09
17
1=
1'
1&
0%
1#
1)
#990000
b1 !
b11 "
16
1G
0,
1H
0I
0K
1J
04
1L
0\
0Z
0T
1\
1X
1V
1P
0[
0U
0]
1Y
1W
1Q
1<
19
0=
1(
1%
0)
1]
0;
0:
07
1=
0'
0&
0#
1)
